<?xml version="1.0"?>
<!--SECO AGV -->
<!--Coded by: Thi-Trang Tran-->
<!--Date: 2020.12.19-->

<robot name="physics">

<material name="red">
    <color rgba="1 0 0 1"/>
  </material>
<material name="blue">
    <color rgba="0 0 0.8 1"/>
  </material>
<material name="green">
    <color rgba="0 1 0 1"/>
  </material>
<material name="yellow">
    <color rgba="0.8 0.8 0 0.8"/>
  </material>
<material name="gray">
    <color rgba="0.8 0.8 0.8 0.8"/>
  </material>
  <material name="black">
    <color rgba="0 0 0 1"/>
  </material>
  <material name="white">
    <color rgba="1 1 1 1"/>
  </material>

<!--AGV base -->
  <link name="base_link">
    <visual>
      <geometry>
        <box size="2.195 1.952 0.6523"/>
      </geometry>
      <material name="yellow"/>
    </visual>
    <collision>
      <geometry>
        <box size="2.195 1.952 0.6523"/>
      </geometry>
    </collision>
    <inertial>
      <mass value="10"/>
      <inertia ixx="1.0" ixy="0.0" ixz="0.0" iyy="1.0" iyz="0.0" izz="1.0"/>
    </inertial>
  </link>

<!-- Front hokuyo sensor -->
<joint name="hokuyo_front" type="fixed">
    <!-- yaw + -> anticlw /-->
    <!--origin xyz="1.1 0.835 0" rpy="3.141592 0 0.795" /-->
    <!--origin xyz="1.11 0.833 0" rpy="3.141592 0 0.79" /-->
    <!--origin xyz="1.13 0.842 0" rpy="0 0 0.82" /-->
    <origin xyz="1.11 0.835 0" rpy="0 0 0.765" />

    <parent link="base_link" />
    <child link="/front/scanner" />
  </joint>

  <link name="/front/scanner">
    <visual>
      <geometry>
        <box size="0.00 0.05 0.06" />
      </geometry>
      <material name="Green" />
    </visual>
    <inertial>
      <mass value="0.000001" />
      <origin xyz="0 0 0" />
      <inertia ixx="0.0001" ixy="0.0" ixz="0.0"
        iyy="0.0001" iyz="0.0"
        izz="0.0001" />
    </inertial>
  </link>

<!-- Back hokuyo sensor -->
  <joint name="hokuyo_back" type="fixed">
    <!-- yaw + -> counter clockwise -->
    <!-- x+ -> x_laser - -->
    <!-- y+ -> y_laser right -->
    <!--origin xyz="-1.1 -0.835 0" rpy="3.141592 0 -2.35619" /-->
    <!--origin xyz="-1.1 -0.835 0" rpy="3.141592 0 -2.36" /-->
    <!--origin xyz="-1.11 -0.832 0" rpy="3.141592 0 -2.37" /-->
    <!--origin xyz="-1.13 -0.842 0" rpy="0.0 0 -2.425" /-->
    <origin xyz="-1.11 -0.835 0" rpy="0.0 0 -2.485" />

    <parent link="base_link" />
    <child link="/rear/scanner" />
  </joint>

  <link name="/rear/scanner">
    <visual>
      <geometry>
        <box size="0.00 0.05 0.06" />
      </geometry>
      <material name="Green" />
    </visual>
    <inertial>
      <mass value="0.000001" />
      <origin xyz="0 0 0" />
      <inertia ixx="0.0001" ixy="0.0" ixz="0.0"
        iyy="0.0001" iyz="0.0"
        izz="0.0001" />
    </inertial>
  </link>

  <joint name="imu" type="fixed">
    <!-- yaw + -> counter clockwise -->
    <!-- x+ -> x_laser - -->
    <!-- y+ -> y_laser right -->
    <!--origin xyz="-1.1 -0.835 0" rpy="3.141592 0 -2.35619" /-->
    <!--origin xyz="-1.1 -0.835 0" rpy="3.141592 0 -2.36" /-->
    <!--origin xyz="-1.11 -0.832 0" rpy="3.141592 0 -2.37" /-->
    <!--origin xyz="-1.13 -0.842 0" rpy="0.0 0 -2.425" /-->
    <origin xyz="0 0 0" rpy="0 0 0" />

    <parent link="base_link" />
    <child link="imu" />
  </joint>

  <link name="imu">
    <visual>
      <geometry>
        <box size="0.01 0.01 0.01" />
      </geometry>
      <material name="Green" />
    </visual>
    <inertial>
      <mass value="0.000001" />
      <origin xyz="0 0 0" />
      <inertia ixx="0.0001" ixy="0.0" ixz="0.0"
        iyy="0.0001" iyz="0.0"
        izz="0.0001" />
    </inertial>
  </link>
</robot>
